....... ....... ....... ..X.... 	 [0000] 83,  04,  E1, 
....... ....... ....... ..XX... 	 [0003] 83,  0C,  E1, 
....... ....... ....... ..XX... 	 [0003] 83,  0C,  E1, 
....... ....... ....... ..XXX.. 	 [0006] 83,  1C,  E1, 
....... ....... ....... ..XXXXX 	 [0009] 83,  7C,  E1, 
....... ....... ....... ..XXXXX XX..... 	 [000C] 83,  7C,  03,  E1, 
....... ....... ....... ..XXXXX XXXX... 	 [0010] 83,  7C,  0F,  E1, 
....... ....... ....... ..XXXXX XXXXXX. 	 [0014] 83,  7C,  3F,  E1, 
....... ....... ....... ..XX... ..XXXXX XX..... 	 [0018] 83,  0C,  7C,  03,  E1, 
....... ....... ....... ..XX... ....XXX XXXX... 	 [001D] 83,  0C,  70,  0F,  E1, 
....... ....... ....... ..X.... ......X XXXXXX. 	 [0022] 83,  04,  40,  3F,  E1, 
....... ....... ....... ..X.... ....... ..XXXXX X...... 	 [0027] 83,  04,  81,  7C,  01,  E1, 
....... ....... ....... ..X.... ....... ...XXXX XXXX... 	 [002D] 83,  04,  81,  78,  0F,  E1, 
....... ....... ....... ....... ....... ...XX.X XXXXXX. 	 [0033] 85,  58,  3F,  E1, 
....... ....... ....... ....... ....... ...XX.. .XXXXXX X...... 	 [0037] 85,  18,  7E,  01,  E1, 
....... ....... ....... ....... ....... ...XX.. ....XXX XXX.... 	 [003C] 85,  18,  70,  07,  E1, 
....... ....... ....... ....... ....... ...XX.. ......X XXXXXX. 	 [0041] 85,  18,  40,  3F,  E1, 
....... ....... ....... ....... ....... ...XX.. ....... .XXXXXX X...... 	 [0046] 85,  18,  81,  7E,  01,  E1, 
....... ....... ....... ....... ....... ...XX.. ....... ...XXXX XXX.... 	 [004C] 85,  18,  81,  78,  07,  E1, 
....... ....... ....... ....... ....... ...XX.. ....... ......X XXXXX.. 	 [0052] 85,  18,  81,  40,  1F,  E1, 
....... ....... ....... ....... ....... ...XX.. ....... ....... .XXXXXX X...... 	 [0058] 85,  18,  82,  7E,  01,  E1, 
....... ....... ....... ....... ....... ...XX.. ....... ....... ...XXXX XXX.... 	 [005E] 85,  18,  82,  78,  07,  E1, 
....... ....... ....... ....... ....... ...XX.. ....... ....... .XXXXXX XXXXX.. 	 [0064] 85,  18,  82,  7E,  1F,  E1, 
....... ....... ....... ....... ....... ...XX.. ....... .....XX XXXXXXX XXXXXX. 	 [006A] 85,  18,  81,  60,  91,  3F,  E1, 
....... ....... ....... ....... ....... ...XX.. ....... ...XXXX XXXXXXX XXXXX.. 	 [0071] 85,  18,  81,  78,  91,  1F,  E1, 
....... ....... ....... ....... ....... ...XX.. ....... XXXXXXX XXXXXXX XX..... 	 [0078] 85,  18,  81,  92,  03,  E1, 
....... ....... ....... ....... ....... ...XX.. .....XX XXXXXXX XXXXXXX 	 [007E] 85,  18,  60,  92,  E1, 
....... ....... ....... ....... ....... ...XX.. ..XXXXX XXXXXXX XXXX... 	 [0083] 85,  18,  7C,  91,  0F,  E1, 
....... ....... ....... ....... ....... ...XX.. XXXXXXX XXXXXXX XX..... 	 [0089] 85,  18,  92,  03,  E1, 
....... ....... ....... ..X.... ....... ...XXXX XXXXXXX XXXXXX. 	 [008E] 83,  04,  81,  78,  91,  3F,  E1, 
....... ....... ....... ..X.... ....... ..XXXXX XXXXXXX XXXX... 	 [0095] 83,  04,  81,  7C,  91,  0F,  E1, 
....... ....... ....... ..X.... ......X XXXXXXX XXXXXXX X...... 	 [009C] 83,  04,  40,  92,  01,  E1, 
....... ....... ....... ..XX... ....XXX XXXXXXX XXXXXX. 	 [00A2] 83,  0C,  70,  91,  3F,  E1, 
....... ....... ....... ..XX... .XXXXXX XXXXXXX XXX.... 	 [00A8] 83,  0C,  7E,  91,  07,  E1, 
....... ....... ....... ..XXXXX XXXXXXX XXXXXXX X...... 	 [00AE] 83,  7C,  92,  01,  E1, 
....... ....... ....... ..XXXXX XXXXXXX XXXXX.. 	 [00B3] 83,  7C,  91,  1F,  E1, 
....... ....... ....... ..XXXXX XXXXXXX XXX.... 	 [00B8] 83,  7C,  91,  07,  E1, 
....... ....... ....... ..XXXXX XXXXXXX 	 [00BD] 83,  7C,  91,  E1, 
....... ....... ....... ..XXXXX XXXXX.. 	 [00C1] 83,  7C,  1F,  E1, 
....... ....... ....... ..XXXXX XX..... 	 [000C] 83,  7C,  03,  E1, 
....... ....... ....... ..XXXXX 	 [0009] 83,  7C,  E1, 
....... ....... ....... ..XXXX. 	 [00C5] 83,  3C,  E1, 
....... ....... ....... ..XX... 	 [0003] 83,  0C,  E1, 
....... ....... ....... ..XX... 	 [0003] 83,  0C,  E1, 
....... ....... ....... ..X.... 	 [0000] 83,  04,  E1, 
....... ....... ....... ..X.... 	 [0000] 83,  04,  E1, 
....... ....... ....... ..X.... 	 [0000] 83,  04,  E1, 






....... ....... ....... ..X.... ....... ....... ....... ....... ....... ....X.. 	 [00C8] 83,  04,  85,  10,  E1, 
....... ....... ....... ..X.... ....... ....... ....... ....... ....... ....X.. 	 [00C8] 83,  04,  85,  10,  E1, 
....... ....... ....... ..X.... ....... ....... ....... ....... ....... ....X.. 	 [00C8] 83,  04,  85,  10,  E1, 
....... ....... ....... ..XX... ....... ....... ....... ....... ....... ...XX.. 	 [00CD] 83,  0C,  85,  18,  E1, 
....... ....... ....... ..XXX.. ....... ....... ....... ....... ....... ..XXX.. 	 [00D2] 83,  1C,  85,  1C,  E1, 
....... ....... ....... ..XXXXX XXXXXXX XXXXXXX XXXXXXX XXXXXXX XXXXXXX XXXXX.. 	 [00D7] 83,  7C,  95,  1F,  E1, 
....... ....... ....... ..XXXXX XXXXXXX XXXXXXX XXXXXXX XXXXXXX XXXXXXX XXXXX.. 	 [00D7] 83,  7C,  95,  1F,  E1, 
....... ....... ....... ..XXXXX XXXXXXX XXXXXXX XXXXXXX XXXXXXX XXXXXXX XXXXX.. 	 [00D7] 83,  7C,  95,  1F,  E1, 
....... ....... ....... ..XXXXX XXXXXXX XXXXXXX XXXXXXX XXXXXXX XXXXXXX XXXXX.. 	 [00D7] 83,  7C,  95,  1F,  E1, 
....... ....... ....... ..XXXXX XXXXXXX XXXXXXX XXXXXXX XXXXXXX XXXXXXX XXXXX.. 	 [00D7] 83,  7C,  95,  1F,  E1, 
....... ....... ....... ..XXXXX XXXXXXX XXXXXXX XXXXXXX XXXXXXX XXXXXXX XXXXX.. 	 [00D7] 83,  7C,  95,  1F,  E1, 
....... ....... ....... ..XXX.. ....... ....... ...XX.. ....... ....... ..XXX.. 	 [00DC] 83,  1C,  82,  18,  82,  1C,  E1, 
....... ....... ....... ..XXX.. ....... ....... ...XX.. ....... ....... ...XX.. 	 [00E3] 83,  1C,  82,  18,  82,  18,  E1, 
....... ....... ....... ..XX... ....... ....... ...XX.. ....... ....... ...XX.. 	 [00EA] 83,  0C,  82,  18,  82,  18,  E1, 
....... ....... ....... ..XX... ....... ....... ...XX.. ....... ....... ...XX.. 	 [00EA] 83,  0C,  82,  18,  82,  18,  E1, 
....... ....... ....... ..XX... ....... ....... ...XX.. ....... ....... ...XX.. 	 [00EA] 83,  0C,  82,  18,  82,  18,  E1, 
....... ....... ....... ..XX... ....... ....... ...XX.. ....... ....... ...XX.. 	 [00EA] 83,  0C,  82,  18,  82,  18,  E1, 
....... ....... ....... ..XX... ....... ....... ...XX.. ....... ....... ...XX.. 	 [00EA] 83,  0C,  82,  18,  82,  18,  E1, 
....... ....... ....... ..XX... ....... ....... ...XX.. ....... ....... ...XX.. 	 [00EA] 83,  0C,  82,  18,  82,  18,  E1, 
....... ....... ....... ..XX... ....... ....... ...XX.. ....... ....... ...XX.. 	 [00EA] 83,  0C,  82,  18,  82,  18,  E1, 
....... ....... ....... ..XX... ....... ....... ...XX.. ....... ....... ...XX.. 	 [00EA] 83,  0C,  82,  18,  82,  18,  E1, 
....... ....... ....... ..XX... ....... ....... ...XX.. ....... ....... ...XX.. 	 [00EA] 83,  0C,  82,  18,  82,  18,  E1, 
....... ....... ....... ..XX... ....... ....... ..XXX.. ....... ....... ..XXX.. 	 [00F1] 83,  0C,  82,  1C,  82,  1C,  E1, 
....... ....... ....... ..XX... ....... ....... ..XXXX. ....... ....... ..XXX.. 	 [00F8] 83,  0C,  82,  3C,  82,  1C,  E1, 
....... ....... ....... ..XXX.. ....... ....... ..XXXX. ....... ....... ..XXX.. 	 [00FF] 83,  1C,  82,  3C,  82,  1C,  E1, 
....... ....... ....... ..XXX.. ....... ....... .XXXXX. ....... ....... .XXX... 	 [0106] 83,  1C,  82,  3E,  82,  0E,  E1, 
....... ....... ....... ..XXX.. ....... ....... .XXXXXX ....... ....... XXXX... 	 [010D] 83,  1C,  82,  7E,  82,  0F,  E1, 
....... ....... ....... ..XXXX. ....... ....... XXXXXXX X...... ......X XXXX... 	 [0114] 83,  3C,  82,  91,  01,  40,  0F,  E1, 
....... ....... ....... ...XXXX ....... ......X XXXXXXX XX..... .....XX XXXX... 	 [011C] 83,  78,  81,  40,  91,  03,  60,  0F,  E1, 
....... ....... ....... ...XXXX X...... .....XX XXXXXXX XXXX... ...XXXX XXX.... 	 [0125] 83,  78,  01,  60,  91,  0F,  78,  07,  E1, 
....... ....... ....... ...XXXX XX..... ....XXX XXX..XX XXXXXXX XXXXXXX XXX.... 	 [012E] 83,  78,  03,  70,  67,  92,  07,  E1, 
....... ....... ....... ....XXX XXXX... ..XXXXX XXX..XX XXXXXXX XXXXXXX XX..... 	 [0136] 83,  70,  0F,  7C,  67,  92,  03,  E1, 
....... ....... ....... ....XXX XXXXXXX XXXXXXX XXX...X XXXXXXX XXXXXXX XX..... 	 [013E] 83,  70,  92,  47,  92,  03,  E1, 
....... ....... ....... .....XX XXXXXXX XXXXXXX XX....X XXXXXXX XXXXXXX X...... 	 [0145] 83,  60,  92,  43,  92,  01,  E1, 
....... ....... ....... .....XX XXXXXXX XXXXXXX XX..... XXXXXXX XXXXXXX 	 [014C] 83,  60,  92,  03,  92,  E1, 
....... ....... ....... ......X XXXXXXX XXXXXXX X...... ..XXXXX XXXXX.. 	 [0152] 83,  40,  92,  01,  7C,  1F,  E1, 
....... ....... ....... ....... XXXXXXX XXXXXXX ....... ....XXX XXX.... 	 [0159] 84,  92,  81,  70,  07,  E1, 
....... ....... ....... ....... ..XXXXX XXXXXX. 	 [015F] 84,  7C,  3F,  E1, 
....... ....... ....... ....... ....XXX XXX.... 	 [0163] 84,  70,  07,  E1, 






....... ....... ....... ..X.... ....... ....... ....... ....... ....... ....X.. 	 [00C8] 83,  04,  85,  10,  E1, 
....... ....... ....... ..X.... ....... ....... ....... ....... ....... ....X.. 	 [00C8] 83,  04,  85,  10,  E1, 
....... ....... ....... ..X.... ....... ....... ....... ....... ....... ....X.. 	 [00C8] 83,  04,  85,  10,  E1, 
....... ....... ....... ..XX... ....... ....... ....... ....... ....... ...XX.. 	 [00CD] 83,  0C,  85,  18,  E1, 
....... ....... ....... ..XXX.. ....... ....... ....... ....... ....... ..XXX.. 	 [00D2] 83,  1C,  85,  1C,  E1, 
....... ....... ....... ..XXXXX XXXXXXX XXXXXXX XXXXXXX XXXXXXX XXXXXXX XXXXX.. 	 [00D7] 83,  7C,  95,  1F,  E1, 
....... ....... ....... ..XXXXX XXXXXXX XXXXXXX XXXXXXX XXXXXXX XXXXXXX XXXXX.. 	 [00D7] 83,  7C,  95,  1F,  E1, 
....... ....... ....... ..XXXXX XXXXXXX XXXXXXX XXXXXXX XXXXXXX XXXXXXX XXXXX.. 	 [00D7] 83,  7C,  95,  1F,  E1, 
....... ....... ....... ..XXXXX XXXXXXX XXXXXXX XXXXXXX XXXXXXX XXXXXXX XXXXX.. 	 [00D7] 83,  7C,  95,  1F,  E1, 
....... ....... ....... ..XXXXX XXXXXXX XXXXXXX XXXXXXX XXXXXXX XXXXXXX XXXXX.. 	 [00D7] 83,  7C,  95,  1F,  E1, 
....... ....... ....... ..XXXXX XXXXXXX XXXXXXX XXXXXXX XXXXXXX XXXXXXX XXXXX.. 	 [00D7] 83,  7C,  95,  1F,  E1, 
....... ....... ....... ..XXX.. ....... ....... ....... ....... ....... ..XXX.. 	 [00D2] 83,  1C,  85,  1C,  E1, 
....... ....... ....... ..XXX.. ....... ....... ....... ....... ....... ..XXX.. 	 [00D2] 83,  1C,  85,  1C,  E1, 
....... ....... ....... ..XX... ....... ....... ....... ....... ....... ...XX.. 	 [00CD] 83,  0C,  85,  18,  E1, 
....... ....... ....... ..XX... ....... ....... ....... ....... ....... ...XX.. 	 [00CD] 83,  0C,  85,  18,  E1, 
....... ....... ....... ..XX... ....... ....... ....... ....... ....... ...XX.. 	 [00CD] 83,  0C,  85,  18,  E1, 
....... ....... ....... ..XX... ....... ....... ....... ....... ....... ...XX.. 	 [00CD] 83,  0C,  85,  18,  E1, 
....... ....... ....... ..XX... ....... ....... ....... ....... ....... ...XX.. 	 [00CD] 83,  0C,  85,  18,  E1, 
....... ....... ....... ..XX... ....... ....... ....... ....... ....... ...XX.. 	 [00CD] 83,  0C,  85,  18,  E1, 
....... ....... ....... ..XX... ....... ....... ....... ....... ....... ...XX.. 	 [00CD] 83,  0C,  85,  18,  E1, 
....... ....... ....... ..XX... ....... ....... ....... ....... ....... ...XX.. 	 [00CD] 83,  0C,  85,  18,  E1, 
....... ....... ....... ..XX... ....... ....... ....... ....... ....... ...XX.. 	 [00CD] 83,  0C,  85,  18,  E1, 
....... ....... ....... ..XX... ....... ....... ....... ....... ....... ...XX.. 	 [00CD] 83,  0C,  85,  18,  E1, 
....... ....... ....... ..XXX.. ....... ....... ....... ....... ....... ..XXX.. 	 [00D2] 83,  1C,  85,  1C,  E1, 
....... ....... ....... ..XXX.. ....... ....... ....... ....... ....... ..XXX.. 	 [00D2] 83,  1C,  85,  1C,  E1, 
....... ....... ....... ...XX.. ....... ....... ....... ....... ....... ..XXX.. 	 [0167] 83,  18,  85,  1C,  E1, 
....... ....... ....... ...XXX. ....... ....... ....... ....... ....... .XXX... 	 [016C] 83,  38,  85,  0E,  E1, 
....... ....... ....... ...XXX. ....... ....... ....... ....... ....... .XXX... 	 [016C] 83,  38,  85,  0E,  E1, 
....... ....... ....... ...XXXX ....... ....... ....... ....... ....... XXXX... 	 [0171] 83,  78,  85,  0F,  E1, 
....... ....... ....... ...XXXX X...... ....... ....... ....... ......X XXXX... 	 [0176] 83,  78,  01,  83,  40,  0F,  E1, 
....... ....... ....... ....XXX X...... ....... ....... ....... ......X XXX.... 	 [017D] 83,  70,  01,  83,  40,  07,  E1, 
....... ....... ....... ....XXX XX..... ....... ....... ....... .....XX XXX.... 	 [0184] 83,  70,  03,  83,  60,  07,  E1, 
....... ....... ....... .....XX XXX.... ....... ....... ....... ....XXX XXX.... 	 [018B] 83,  60,  07,  83,  70,  07,  E1, 
....... ....... ....... .....XX XXXXX.. ....... ....... ....... ..XXXXX XX..... 	 [0192] 83,  60,  1F,  83,  7C,  03,  E1, 
....... ....... ....... ......X XXXXXX. ....... ....... ....... .XXXXXX XX..... 	 [0199] 83,  40,  3F,  83,  7E,  03,  E1, 
....... ....... ....... ......X XXXXXXX XX..... ....... .....XX XXXXXXX X...... 	 [01A0] 83,  40,  91,  03,  81,  60,  91,  01,  E1, 
....... ....... ....... ....... XXXXXXX XXXXX.. ....... ..XXXXX XXXXXXX 	 [01A9] 84,  91,  1F,  81,  7C,  91,  E1, 
....... ....... ....... ....... .XXXXXX XXXXXXX XXXXXXX XXXXXXX XXXXXX. 	 [01B0] 84,  7E,  93,  3F,  E1, 
....... ....... ....... ....... ..XXXXX XXXXXXX XXXXXXX XXXXXXX XXXXX.. 	 [01B5] 84,  7C,  93,  1F,  E1, 
....... ....... ....... ....... ...XXXX XXXXXXX XXXXXXX XXXXXXX XXXX... 	 [01BA] 84,  78,  93,  0F,  E1, 
....... ....... ....... ....... .....XX XXXXXXX XXXXXXX XXXXXXX XXX.... 	 [01BF] 84,  60,  93,  07,  E1, 
....... ....... ....... ....... ....... XXXXXXX XXXXXXX XXXXXXX X...... 	 [01C4] 85,  93,  01,  E1, 
....... ....... ....... ....... ....... ..XXXXX XXXXXXX XXXXXX. 	 [01C8] 85,  7C,  91,  3F,  E1, 
....... ....... ....... ....... ....... .....XX XXXXXXX XX..... 	 [01CD] 85,  60,  91,  03,  E1, 
 	 [01D2] E1, 
 	 [01D2] E1, 
 	 [01D2] E1, 
